%YAML 1.1
%TAG !u! tag:unity3d.com,2011:
--- !u!114 &11400000
MonoBehaviour:
  m_ObjectHideFlags: 0
  m_CorrespondingSourceObject: {fileID: 0}
  m_PrefabInternal: {fileID: 0}
  m_GameObject: {fileID: 0}
  m_Enabled: 1
  m_EditorHideFlags: 0
  m_Script: {fileID: 11500000, guid: 36e7d0c54b93e6941ada2e692193fa1b, type: 3}
  m_Name: Kill an Skeleton
  m_EditorClassIdentifier: 
  idQuest: 2
  EnDescription: Kill an esqueleton
  EsDescription: Mata un esqueleto
  CaDescription: Mata un esquelet.
  Completed: 0
  CurrentAmount: 0
  RequiredAmount: 1
  EnemyID: 0
