%YAML 1.1
%TAG !u! tag:unity3d.com,2011:
--- !u!114 &11400000
MonoBehaviour:
  m_ObjectHideFlags: 0
  m_CorrespondingSourceObject: {fileID: 0}
  m_PrefabInternal: {fileID: 0}
  m_GameObject: {fileID: 0}
  m_Enabled: 1
  m_EditorHideFlags: 0
  m_Script: {fileID: 11500000, guid: f716b884494d12c43b5cd9191d901764, type: 3}
  m_Name: GetterSkeletonQuestQuestConversation
  m_EditorClassIdentifier: 
  startQuestConversation:
    completeObjectiveOnFinish: 0
    objectiveId: 0
    sentences:
    - enText: STARTABLE
      esText: STARTABLE
      caText: STARTABLE
    - enText: STARTABLE2
      esText: STARTABLE2
      caText: STARTABLE2
    - enText: STARTABLE3
      esText: STARTABLE3
      caText: STARTABLE3
  NotStartableQuestConversation:
    completeObjectiveOnFinish: 0
    objectiveId: 0
    sentences:
    - enText: Damn... how could I fall...?
      esText: "Maldici\xF3n... \xBFC\xF3mo he podido caer...?"
      caText: "Maledicci\xF3... com he pogut caure...?"
  incompleteQuestConversation:
    completeObjectiveOnFinish: 0
    objectiveId: 0
    sentences:
    - enText: Kill some skeletons and if you can kill my undead body.
      esText: Mata algunos esqueletos y si puedes mata mi cuerpo no muerto.
      caText: Mata alguns esquelets i si pots mata el meu cos no mort.
  readyToCompleteQuestConversation:
    completeObjectiveOnFinish: 0
    objectiveId: 0
    sentences:
    - enText: This is the final of the this prototype.
      esText: Este es el fin de este prototipo.
      caText: Aquest es el final del prototip.
    - enText: Thanks for playing!
      esText: "\xA1Gracias por jugar!"
      caText: "Gr\xE0cies per jugar."
  completedQuestConversation:
    completeObjectiveOnFinish: 0
    objectiveId: 0
    sentences:
    - enText: If you can... Kill my body. He is working for the putrefaction god.
      esText: "Si puedes... Mata a mi cuerpo. \xC9l est\xE1 trabajando para el dios
        de la putrefacci\xF3n."
      caText: "Si pots... Mata el meu cos. Ell est\xE0 treballant pel deu de la putrefacci\xF3."
