%YAML 1.1
%TAG !u! tag:unity3d.com,2011:
--- !u!114 &11400000
MonoBehaviour:
  m_ObjectHideFlags: 0
  m_CorrespondingSourceObject: {fileID: 0}
  m_PrefabInternal: {fileID: 0}
  m_GameObject: {fileID: 0}
  m_Enabled: 1
  m_EditorHideFlags: 0
  m_Script: {fileID: 11500000, guid: 9dd50981b45690a4bae2451b4aecce31, type: 3}
  m_Name: Fire Sword
  m_EditorClassIdentifier: 
  idItem: 5
  enName: Fire Sword
  esName: Nuevo objeto
  caName: Nou objecte
  enDescription: 'Fire '
  esDescription: 
  caDescription: 
  icon: {fileID: 21300000, guid: bf0d3c9d83994aa40b1f04574b3d5391, type: 3}
  showInInventory: 1
  prefab: {fileID: 1469580133813354, guid: 9738c2b243125914cb55e363343a3186, type: 2}
  equipSlot: 0
  maxHealthModifier: 500
  maxManaModifier: 300
  strenghModifier: 40
  agilityModifier: 25
  intelligenceModifier: 15
  lifeRegenerationModifier: 2
  manaRegenerationModifier: 0
  armorModifier: 25
  damageModifier: 150
