%YAML 1.1
%TAG !u! tag:unity3d.com,2011:
--- !u!114 &11400000
MonoBehaviour:
  m_ObjectHideFlags: 0
  m_CorrespondingSourceObject: {fileID: 0}
  m_PrefabInternal: {fileID: 0}
  m_GameObject: {fileID: 0}
  m_Enabled: 1
  m_EditorHideFlags: 0
  m_Script: {fileID: 11500000, guid: 46c4d50a7bfb5844683279aa508baa0e, type: 3}
  m_Name: MusicDatabase
  m_EditorClassIdentifier: 
  musicClips:
  - {fileID: 8300000, guid: cbf9b47471128484191162c8f2c955a6, type: 3}
  - {fileID: 8300000, guid: e44166eb056e844eeb2746ffa6d954e4, type: 3}
  - {fileID: 8300000, guid: 89028814b10ce4899a383978503d3269, type: 3}
  - {fileID: 8300000, guid: e3c2c31302148498c9dbb28c26251bc2, type: 3}
  - {fileID: 8300000, guid: a9090e40a455a43b8b99d2c960fed36b, type: 3}
  combatClips:
  - {fileID: 8300000, guid: bad3c0bcce37b4422b76fedbbec133bb, type: 3}
  - {fileID: 8300000, guid: 6f7ff6bd048ec42a0baff733a4384c04, type: 3}
  - {fileID: 8300000, guid: e8df899ba9465421b8f8bc7076d56586, type: 3}
