%YAML 1.1
%TAG !u! tag:unity3d.com,2011:
--- !u!114 &11400000
MonoBehaviour:
  m_ObjectHideFlags: 0
  m_CorrespondingSourceObject: {fileID: 0}
  m_PrefabInternal: {fileID: 0}
  m_GameObject: {fileID: 0}
  m_Enabled: 1
  m_EditorHideFlags: 0
  m_Script: {fileID: 11500000, guid: 5e767997560602a4988b6ad19b2bb04e, type: 3}
  m_Name: SkeletonSlaveVoiceDatabase
  m_EditorClassIdentifier: 
  usualClips:
  - {fileID: 8300000, guid: 5a0d576e470b84cdbbe586ca4df84302, type: 3}
  - {fileID: 8300000, guid: 4591308b162bc452da73647278064087, type: 3}
  - {fileID: 8300000, guid: b443832c66b7547b5989e77c6c0e6381, type: 3}
  - {fileID: 8300000, guid: 935e09104521d4ac98476aaad0076aaa, type: 3}
  - {fileID: 8300000, guid: 8846a16f4ea3b4c66b7c0bd6c25ad49e, type: 3}
  - {fileID: 8300000, guid: bd63721b50ae243949629104e26a3dae, type: 3}
  - {fileID: 8300000, guid: 7dd56802f4fea4eeea92f11f228df208, type: 3}
  - {fileID: 8300000, guid: e926e2e6a0c054de593fb493d6ab0cde, type: 3}
  - {fileID: 8300000, guid: 29fea2940f8814b029a8833a2f6c7b97, type: 3}
  - {fileID: 8300000, guid: 2c965142052594661b7b3828b77c4b8c, type: 3}
  - {fileID: 8300000, guid: 571721a6d3a544f32a7fdac343d19179, type: 3}
  attackClips:
  - {fileID: 8300000, guid: 7406c0afde1d0406c987b8e3c161cd3e, type: 3}
  - {fileID: 8300000, guid: 0c9e313cb4f564b40a78f2e3e048a238, type: 3}
  huntingClips:
  - {fileID: 8300000, guid: d873f5705d44c466c84c8d8cd4468831, type: 3}
  - {fileID: 8300000, guid: 069ddaf378fdf4db0bd552ec62a4bac5, type: 3}
  - {fileID: 8300000, guid: 5a0d576e470b84cdbbe586ca4df84302, type: 3}
  hurtClips:
  - {fileID: 8300000, guid: 2e1c308723ba540fbbfa3cd0f00da193, type: 3}
  - {fileID: 8300000, guid: 6bf20985248c4481181d5937d8d4831e, type: 3}
  deadClips:
  - {fileID: 8300000, guid: 7764e15a3ea2343f8890b94d3f2e0825, type: 3}
  screamClips:
  - {fileID: 8300000, guid: 953a4d9138d184cd59d62c74acad418f, type: 3}
